module github.com/yathindrarao/go-graphql

go 1.20

require (
	github.com/99designs/gqlgen v0.17.24
	github.com/dgrijalva/jwt-go v3.2.0+incompatible
	github.com/go-chi/chi v1.5.4
	github.com/go-pg/pg v8.0.7+incompatible
	github.com/joho/godotenv v1.5.1
	github.com/stretchr/testify v1.8.0
	github.com/vektah/gqlparser/v2 v2.5.1
	golang.org/x/crypto v0.4.0
)

require (
	github.com/agnivade/levenshtein v1.1.1 // indirect
	github.com/cpuguy83/go-md2man/v2 v2.0.1 // indirect
	github.com/davecgh/go-spew v1.1.1 // indirect
	github.com/gorilla/websocket v1.5.0 // indirect
	github.com/hashicorp/golang-lru v0.5.4 // indirect
	github.com/jinzhu/inflection v1.0.0 // indirect
	github.com/kr/pretty v0.3.0 // indirect
	github.com/mitchellh/mapstructure v1.5.0 // indirect
	github.com/onsi/ginkgo v1.16.5 // indirect
	github.com/onsi/gomega v1.26.0 // indirect
	github.com/pmezard/go-difflib v1.0.0 // indirect
	github.com/russross/blackfriday/v2 v2.1.0 // indirect
	github.com/urfave/cli/v2 v2.8.1 // indirect
	github.com/xrash/smetrics v0.0.0-20201216005158-039620a65673 // indirect
	golang.org/x/mod v0.6.0-dev.0.20220419223038-86c51ed26bb4 // indirect
	golang.org/x/sys v0.4.0 // indirect
	golang.org/x/text v0.6.0 // indirect
	golang.org/x/tools v0.1.12 // indirect
	gopkg.in/check.v1 v1.0.0-20201130134442-10cb98267c6c // indirect
	gopkg.in/yaml.v3 v3.0.1 // indirect
	mellium.im/sasl v0.3.1 // indirect
)
